test_data/comprehensive_validation/digital/spi_1mhz.vcd
$timescale 1ns $end
$scope module spi $end
$var wire 1 C clk $end
$var wire 1 D mosi $end
$upscope $end
$enddefinitions $end
#0
0C
0D
#0
0C
#0
0D
#1000
1D
#1250
1C
#1750
0C
#2000
0D
#2250
1C
#2750
0C
#3000
1D
#3250
1C
#3750
0C
#4000
0D
#4250
1C
#4750
0C
#5000
1D
#5250
1C
#5750
0C
#6000
0D
#6250
1C
#6750
0C
#7000
1D
#7250
1C
#7750
0C
#8000
0D
#8250
1C
#8750
0C
#9000
0D
#9250
1C
#9750
0C
#10000
1D
#10250
1C
#10750
0C
#11000
0D
#11250
1C
#11750
0C
#12000
1D
#12250
1C
#12750
0C
#13000
0D
#13250
1C
#13750
0C
#14000
1D
#14250
1C
#14750
0C
#15000
0D
#15250
1C
#15750
0C
#16000
1D
#16250
1C
#16750
0C
#17000
0D
#17250
1C
#17750
0C
#18000
0D
#18250
1C
#18750
0C
#19000
0D
#19250
1C
#19750
0C
#20000
0D
#20250
1C
#20750
0C
#21000
0D
#21250
1C
#21750
0C
#22000
0D
#22250
1C
#22750
0C
#23000
0D
#23250
1C
#23750
0C
#24000
0D
#24250
1C
#24750
0C
#25000
1D
#25250
1C
#25750
0C
#26000
1D
#26250
1C
#26750
0C
#27000
1D
#27250
1C
#27750
0C
#28000
1D
#28250
1C
#28750
0C
#29000
1D
#29250
1C
#29750
0C
#30000
1D
#30250
1C
#30750
0C
#31000
1D
#31250
1C
#31750
0C
#32000
1D
