test_data/comprehensive_validation/digital/uart_clean_921600.vcd
$timescale 1ns $end
$scope module signals $end
$var wire 1 ! data $end
$upscope $end
$enddefinitions $end
#0
1!
#0
1!
#10000
0!
#11000
0!
#12000
0!
#13000
0!
#14000
1!
#15000
0!
#16000
0!
#17000
1!
#18000
0!
#19000
1!
#21000
0!
#22000
1!
#23000
0!
#24000
1!
#25000
0!
#26000
0!
#27000
1!
#28000
1!
#29000
0!
#30000
1!
#32000
0!
#33000
0!
#34000
0!
#35000
1!
#36000
1!
#37000
0!
#38000
1!
#39000
1!
#40000
0!
#41000
1!
#43000
0!
#44000
0!
#45000
0!
#46000
1!
#47000
1!
#48000
0!
#49000
1!
#50000
1!
#51000
0!
#52000
1!
#54000
0!
#55000
1!
#56000
1!
#57000
1!
#58000
1!
#59000
0!
#60000
1!
#61000
1!
#62000
0!
#63000
1!
#65000
0!
#66000
0!
#67000
0!
#68000
1!
#69000
1!
#70000
0!
#71000
1!
#72000
0!
#73000
0!
#74000
1!
#76000
0!
#77000
0!
#78000
0!
#79000
0!
#80000
0!
#81000
0!
#82000
1!
#83000
0!
#84000
0!
#85000
1!
#87000
0!
#88000
1!
#89000
1!
#90000
1!
#91000
0!
#92000
1!
#93000
0!
#94000
1!
#95000
0!
#96000
1!
#98000
0!
#99000
1!
#100000
1!
#101000
1!
#102000
1!
#103000
0!
#104000
1!
#105000
1!
#106000
0!
#107000
1!
#109000
0!
#110000
0!
#111000
1!
#112000
0!
#113000
0!
#114000
1!
#115000
1!
#116000
1!
#117000
0!
#118000
1!
#120000
0!
#121000
0!
#122000
0!
#123000
1!
#124000
1!
#125000
0!
#126000
1!
#127000
1!
#128000
0!
#129000
1!
#131000
0!
#132000
0!
#133000
0!
#134000
1!
#135000
0!
#136000
0!
#137000
1!
#138000
1!
#139000
0!
#140000
1!
#142000
0!
#143000
1!
#144000
0!
#145000
0!
#146000
0!
#147000
0!
#148000
1!
#149000
0!
#150000
0!
#151000
1!
#153000
0!
#154000
1!
#155000
0!
#156000
1!
#157000
1!
#158000
0!
#159000
0!
#160000
0!
#161000
0!
#162000
1!
#164000
0!
#165000
0!
#166000
1!
#167000
0!
#168000
1!
#169000
0!
#170000
0!
#171000
0!
#172000
0!
#173000
1!
