test_data/comprehensive_validation/digital/uart_clean_9600.vcd
$timescale 1ns $end
$scope module signals $end
$var wire 1 ! data $end
$upscope $end
$enddefinitions $end
#0
1!
#0
1!
#10000
0!
#114100
0!
#218200
0!
#322300
0!
#426400
1!
#530500
0!
#634600
0!
#738700
1!
#842800
0!
#946900
1!
#1155100
0!
#1259200
1!
#1363300
0!
#1467400
1!
#1571500
0!
#1675600
0!
#1779700
1!
#1883800
1!
#1987900
0!
#2092000
1!
#2300200
0!
#2404300
0!
#2508400
0!
#2612500
1!
#2716600
1!
#2820700
0!
#2924800
1!
#3028900
1!
#3133000
0!
#3237100
1!
#3445300
0!
#3549400
0!
#3653500
0!
#3757600
1!
#3861700
1!
#3965800
0!
#4069900
1!
#4174000
1!
#4278100
0!
#4382200
1!
#4590400
0!
#4694500
1!
#4798600
1!
#4902700
1!
#5006800
1!
#5110900
0!
#5215000
1!
#5319100
1!
#5423200
0!
#5527300
1!
#5735500
0!
#5839600
0!
#5943700
0!
#6047800
1!
#6151900
1!
#6256000
0!
#6360100
1!
#6464200
0!
#6568300
0!
#6672400
1!
#6880600
0!
#6984700
0!
#7088800
0!
#7192900
0!
#7297000
0!
#7401100
0!
#7505200
1!
#7609300
0!
#7713400
0!
#7817500
1!
#8025700
0!
#8129800
1!
#8233900
1!
#8338000
1!
#8442100
0!
#8546200
1!
#8650300
0!
#8754400
1!
#8858500
0!
#8962600
1!
#9170800
0!
#9274900
1!
#9379000
1!
#9483100
1!
#9587200
1!
#9691300
0!
#9795400
1!
#9899500
1!
#10003600
0!
#10107700
1!
#10315900
0!
#10420000
0!
#10524100
1!
#10628200
0!
#10732300
0!
#10836400
1!
#10940500
1!
#11044600
1!
#11148700
0!
#11252800
1!
#11461000
0!
#11565100
0!
#11669200
0!
#11773300
1!
#11877400
1!
#11981500
0!
#12085600
1!
#12189700
1!
#12293800
0!
#12397900
1!
#12606100
0!
#12710200
0!
#12814300
0!
#12918400
1!
#13022500
0!
#13126600
0!
#13230700
1!
#13334800
1!
#13438900
0!
#13543000
1!
#13751200
0!
#13855300
1!
#13959400
0!
#14063500
0!
#14167600
0!
#14271700
0!
#14375800
1!
#14479900
0!
#14584000
0!
#14688100
1!
#14896300
0!
#15000400
1!
#15104500
0!
#15208600
1!
#15312700
1!
#15416800
0!
#15520900
0!
#15625000
0!
#15729100
0!
#15833200
1!
#16041400
0!
#16145500
0!
#16249600
1!
#16353700
0!
#16457800
1!
#16561900
0!
#16666000
0!
#16770100
0!
#16874200
0!
#16978300
1!
