test_data/synthetic/validation/digital/digital_mixed_signals.vcd
$timescale 1ns $end
$scope module mixed $end
$var wire 1 T uart_tx $end
$var wire 1 R uart_rx $end
$var wire 1 0 gpio_0 $end
$var wire 1 1 gpio_1 $end
$upscope $end
$enddefinitions $end
#0
1T
1R
0
01
#1000
0T
10
#2000
1T
00
#3000
0T
10
#4000
1T
00
#5000
0T
10
#6000
1T
00
#7000
0T
10
#8000
1T
00
#9000
0T
10
#10000
1T
00
#11000
0T
10
#12000
1T
00
#13000
0T
10
#14000
1T
00
#15000
0T
10
#16000
1T
00
#17000
0T
10
#18000
1T
00
#19000
0T
10
#20000
1T
00
#21000
0T
10
#22000
1T
00
#23000
0T
10
#24000
1T
00
#25000
0T
10
#26000
1T
00
#27000
0T
10
#28000
1T
00
#29000
0T
10
#30000
1T
00
#31000
0T
10
#32000
1T
00
#33000
0T
10
#34000
1T
00
#35000
0T
10
#36000
1T
00
#37000
0T
10
#38000
1T
00
#39000
0T
10
#40000
1T
00
#41000
0T
10
#42000
1T
00
#43000
0T
10
#44000
1T
00
#45000
0T
10
#46000
1T
00
#47000
0T
10
#48000
1T
00
#49000
0T
10
#50000
1T
00
#51000
0T
10
#52000
1T
00
#53000
0T
10
#54000
1T
00
#55000
0T
10
#56000
1T
00
#57000
0T
10
#58000
1T
00
#59000
0T
10
#60000
1T
00
#61000
0T
10
#62000
1T
00
#63000
0T
10
#64000
1T
00
#65000
0T
10
#66000
1T
00
#67000
0T
10
#68000
1T
00
#69000
0T
10
#70000
1T
00
#71000
0T
10
#72000
1T
00
#73000
0T
10
#74000
1T
00
#75000
0T
10
#76000
1T
00
#77000
0T
10
#78000
1T
00
#79000
0T
10
#80000
1T
00
#81000
0T
10
#82000
1T
00
#83000
0T
10
#84000
1T
00
#85000
0T
10
#86000
1T
00
#87000
0T
10
#88000
1T
00
#89000
0T
10
#90000
1T
00
#91000
0T
10
#92000
1T
00
#93000
0T
10
#94000
1T
00
#95000
0T
10
#96000
1T
00
#97000
0T
10
#98000
1T
00
#99000
0T
10
#100000
1T
00
