test_data/synthetic/validation/digital/digital_uart_115200.vcd
$timescale 1ns $end
$scope module uart $end
$var wire 1 ! tx $end
$upscope $end
$enddefinitions $end
#0
1!
#0
1!
#0
0!
#8600
0!
#17200
0!
#25800
0!
#34400
1!
#43000
0!
#51600
0!
#60200
1!
#68800
0!
#77400
1!
#94600
0!
#103200
1!
#111800
0!
#120400
1!
#129000
0!
#137600
0!
#146200
1!
#154800
1!
#163400
0!
#172000
1!
#189200
0!
#197800
0!
#206400
0!
#215000
1!
#223600
1!
#232200
0!
#240800
1!
#249400
1!
#258000
0!
#266600
1!
#283800
0!
#292400
0!
#301000
0!
#309600
1!
#318200
1!
#326800
0!
#335400
1!
#344000
1!
#352600
0!
#361200
1!
#378400
0!
#387000
1!
#395600
1!
#404200
1!
#412800
1!
#421400
0!
#430000
1!
#438600
1!
#447200
0!
#455800
1!
#473000
0!
#481600
0!
#490200
0!
#498800
1!
#507400
1!
#516000
0!
#524600
1!
#533200
0!
#541800
0!
#550400
1!
#567600
0!
#576200
0!
#584800
0!
#593400
0!
#602000
0!
#610600
0!
#619200
1!
#627800
0!
#636400
0!
#645000
1!
#662200
0!
#670800
1!
#679400
1!
#688000
1!
#696600
0!
#705200
1!
#713800
0!
#722400
1!
#731000
0!
#739600
1!
#756800
0!
#765400
1!
#774000
1!
#782600
1!
#791200
1!
#799800
0!
#808400
1!
#817000
1!
#825600
0!
#834200
1!
#851400
0!
#860000
0!
#868600
1!
#877200
0!
#885800
0!
#894400
1!
#903000
1!
#911600
1!
#920200
0!
#928800
1!
#946000
0!
#954600
0!
#963200
0!
#971800
1!
#980400
1!
#989000
0!
#997600
1!
#1006200
1!
#1014800
0!
#1023400
1!
#1040600
0!
#1049200
0!
#1057800
0!
#1066400
1!
#1075000
0!
#1083600
0!
#1092200
1!
#1100800
1!
#1109400
0!
#1118000
1!
#1135200
0!
#1143800
1!
#1152400
0!
#1161000
0!
#1169600
0!
#1178200
0!
#1186800
1!
#1195400
0!
#1204000
0!
#1212600
1!
