test_data/synthetic/validation/digital/digital_can_500k.vcd
$timescale 1ns $end
$scope module can $end
$var wire 1 H canh $end
$var wire 1 L canl $end
$upscope $end
$enddefinitions $end
#0
1H
0L
#20000
0H
1L
#22000
0H
1L
#24000
0H
1L
#26000
1H
0L
#28000
0H
1L
#30000
0H
1L
#32000
1H
0L
#34000
0H
1L
#36000
0H
1L
#38000
0H
1L
#40000
1H
0L
#42000
1H
0L
#44000
0H
1L
#46000
0H
1L
#48000
0H
1L
#50000
0H
1L
#52000
1H
0L
#54000
0H
1L
#56000
0H
1L
#58000
1H
0L
#60000
1H
0L
#62000
0H
1L
#64000
1H
0L
#66000
1H
0L
#68000
1H
0L
#70000
1H
0L
#72000
0H
1L
#74000
1H
0L
#76000
0H
1L
#78000
1H
0L
#80000
0H
1L
#82000
1H
0L
#84000
1H
0L
#86000
0H
1L
#88000
1H
0L
#90000
1H
0L
#92000
0H
1L
#94000
1H
0L
#96000
1H
0L
#98000
1H
0L
#100000
1H
0L
#102000
1H
0L
#104000
0H
1L
#106000
1H
0L
#108000
1H
0L
#110000
1H
0L
#112000
0H
1L
#114000
1H
0L
#116000
1H
0L
#118000
1H
0L
#120000
1H
0L
#122000
1H
0L
#124000
1H
0L
#126000
1H
0L
#128000
1H
0L
#130000
1H
0L
#132000
1H
0L
#134000
1H
0L
#136000
1H
0L
#138000
1H
0L
#140000
1H
0L
#142000
1H
0L
#144000
1H
0L
#146000
1H
0L
#148000
1H
0L
#150000
1H
0L
#152000
1H
0L
#154000
0H
1L
#156000
1H
0L
#158000
1H
0L
#160000
1H
0L
#162000
1H
0L
#164000
1H
0L
#166000
1H
0L
#168000
1H
0L
#170000
1H
0L
