test_data/synthetic/validation/digital/digital_i2c_400khz.vcd
$timescale 1ns $end
$scope module i2c $end
$var wire 1 C scl $end
$var wire 1 D sda $end
$upscope $end
$enddefinitions $end
#0
1C
1D
#25000
0D
#26250
0C
#27500
1D
#28000
1C
#29250
0C
#30000
0D
#30500
1C
#31750
0C
#32500
1D
#33000
1C
#34250
0C
#35000
0D
#35500
1C
#36750
0C
#37500
0D
#38000
1C
#39250
0C
#40000
0D
#40500
1C
#41750
0C
#42500
0D
#43000
1C
#44250
0C
#45000
0D
#45500
1C
#46750
0C
#47500
0D
#48000
1C
#49250
0C
#50000
0D
#50500
1C
#51750
0C
#52500
0D
#53000
1C
#54250
0C
#55000
0D
#55500
1C
#56750
0C
#57500
0D
#58000
1C
#59250
0C
#60000
0D
#60500
1C
#61750
0C
#62500
0D
#63000
1C
#64250
0C
#65000
0D
#65500
1C
#66750
0C
#67500
0D
#68000
1C
#69250
0C
#70000
0D
#70500
1C
#71750
0C
#72500
0D
#73000
1C
#74250
0C
#75000
0D
#75500
1C
#76750
0C
#77500
0D
#78000
1C
#79250
0C
#80000
0D
#80500
1C
#81750
0C
#82500
0D
#83000
1C
#84250
0C
#85000
0D
#85500
1C
#86750
0C
#87500
0D
#88000
1C
#89250
0C
#90000
1D
#90500
1C
#91750
0C
#92500
0D
#93000
1C
#94250
0C
#95000
0D
#95500
1C
#96750
0C
#97500
0D
#98000
1C
#99250
0C
#100000
0D
#100500
1C
#101750
0C
#102500
0D
#103000
1C
#104250
0C
#105000
0D
#105500
1C
#106750
0C
#107500
0D
#108000
1C
#109250
0C
#110000
1D
#110500
1C
#111750
0C
#112500
0D
#113000
1C
#114250
0C
#115000
0D
#115500
1C
#116750
0C
#117500
0D
#118000
1C
#119250
0C
#120000
0D
#120500
1C
#121750
0C
#122500
0D
#123000
1C
#124250
0C
#125000
0D
#125500
1C
#126750
0C
#127500
0D
#128000
1C
#129250
0C
#130000
0D
#130500
1C
#131750
0C
#132500
1D
#133000
1C
#134250
0C
#135000
1D
#135500
1C
#136750
0C
#137500
0D
#138000
1C
#139250
0C
#140000
0D
#140500
1C
#141250
1D
