test_data/synthetic/validation/digital/digital_spi_10mhz.vcd
$timescale 1ns $end
$scope module spi $end
$var wire 1 C sclk $end
$var wire 1 D mosi $end
$var wire 1 S cs $end
$upscope $end
$enddefinitions $end
#0
0C
0D
1S
#1000
0S
#1100
1D
#1120
1C
#1170
0C
#1200
0D
#1220
1C
#1270
0C
#1300
1D
#1320
1C
#1370
0C
#1400
0D
#1420
1C
#1470
0C
#1500
1D
#1520
1C
#1570
0C
#1600
0D
#1620
1C
#1670
0C
#1700
1D
#1720
1C
#1770
0C
#1800
0D
#1820
1C
#1870
0C
#1900
0D
#1920
1C
#1970
0C
#2000
1D
#2020
1C
#2070
0C
#2100
0D
#2120
1C
#2170
0C
#2200
1D
#2220
1C
#2270
0C
#2300
0D
#2320
1C
#2370
0C
#2400
1D
#2420
1C
#2470
0C
#2500
0D
#2520
1C
#2570
0C
#2600
1D
#2620
1C
#2670
0C
#2700
0D
#2720
1C
#2770
0C
#2800
0D
#2820
1C
#2870
0C
#2900
0D
#2920
1C
#2970
0C
#3000
0D
#3020
1C
#3070
0C
#3100
0D
#3120
1C
#3170
0C
#3200
0D
#3220
1C
#3270
0C
#3300
0D
#3320
1C
#3370
0C
#3400
0D
#3420
1C
#3470
0C
#3500
1D
#3520
1C
#3570
0C
#3600
1D
#3620
1C
#3670
0C
#3700
1D
#3720
1C
#3770
0C
#3800
1D
#3820
1C
#3870
0C
#3900
1D
#3920
1C
#3970
0C
#4000
1D
#4020
1C
#4070
0C
#4100
1D
#4120
1C
#4170
0C
#4200
1D
#4220
1C
#4270
0C
#4300
1S
