test_data/synthetic/validation/digital/uart_clean_115200.vcd
$timescale 1ns $end
$scope module signals $end
$var wire 1 ! data $end
$upscope $end
$enddefinitions $end
#0
1!
#0
1!
#10000
0!
#18600
0!
#27200
0!
#35800
0!
#44400
1!
#53000
0!
#61600
0!
#70200
1!
#78800
0!
#87400
1!
#104600
0!
#113200
1!
#121800
0!
#130400
1!
#139000
0!
#147600
0!
#156200
1!
#164800
1!
#173400
0!
#182000
1!
#199200
0!
#207800
0!
#216400
0!
#225000
1!
#233600
1!
#242200
0!
#250800
1!
#259400
1!
#268000
0!
#276600
1!
#293800
0!
#302400
0!
#311000
0!
#319600
1!
#328200
1!
#336800
0!
#345400
1!
#354000
1!
#362600
0!
#371200
1!
#388400
0!
#397000
1!
#405600
1!
#414200
1!
#422800
1!
#431400
0!
#440000
1!
#448600
1!
#457200
0!
#465800
1!
#483000
0!
#491600
0!
#500200
0!
#508800
1!
#517400
1!
#526000
0!
#534600
1!
#543200
0!
#551800
0!
#560400
1!
#577600
0!
#586200
0!
#594800
0!
#603400
0!
#612000
0!
#620600
0!
#629200
1!
#637800
0!
#646400
0!
#655000
1!
#672200
0!
#680800
1!
#689400
1!
#698000
1!
#706600
0!
#715200
1!
#723800
0!
#732400
1!
#741000
0!
#749600
1!
#766800
0!
#775400
1!
#784000
1!
#792600
1!
#801200
1!
#809800
0!
#818400
1!
#827000
1!
#835600
0!
#844200
1!
#861400
0!
#870000
0!
#878600
1!
#887200
0!
#895800
0!
#904400
1!
#913000
1!
#921600
1!
#930200
0!
#938800
1!
#956000
0!
#964600
0!
#973200
0!
#981800
1!
#990400
1!
#999000
0!
#1007600
1!
#1016200
1!
#1024800
0!
#1033400
1!
#1050600
0!
#1059200
0!
#1067800
0!
#1076400
1!
#1085000
0!
#1093600
0!
#1102200
1!
#1110800
1!
#1119400
0!
#1128000
1!
#1145200
0!
#1153800
1!
#1162400
0!
#1171000
0!
#1179600
0!
#1188200
0!
#1196800
1!
#1205400
0!
#1214000
0!
#1222600
1!
#1239800
0!
#1248400
1!
#1257000
0!
#1265600
1!
#1274200
1!
#1282800
0!
#1291400
0!
#1300000
0!
#1308600
0!
#1317200
1!
#1334400
0!
#1343000
0!
#1351600
1!
#1360200
0!
#1368800
1!
#1377400
0!
#1386000
0!
#1394600
0!
#1403200
0!
#1411800
1!
