test_data/synthetic/validation/digital/uart_noisy_5pct.vcd
$timescale 1ns $end
$scope module signals $end
$var wire 1 ! data $end
$upscope $end
$enddefinitions $end
#0
1!
#0
1!
#10000
0!
#18600
0!
#27200
0!
#35800
1!
#44400
0!
#53000
1!
#61600
0!
#70200
1!
#78800
0!
#87400
1!
#104600
0!
#113200
0!
#121800
0!
#130400
1!
#139000
0!
#147600
0!
#156200
1!
#164800
1!
#173400
0!
#182000
1!
#199200
0!
#207800
0!
#216400
1!
#225000
0!
#233600
0!
#242200
1!
#250800
1!
#259400
1!
#268000
0!
#276600
1!
#293800
0!
#302400
0!
#311000
0!
#319600
1!
#328200
0!
#336800
1!
#345400
1!
#354000
0!
#362600
0!
#371200
1!
